<svg width="20" height="20" viewBox="0 0 20 20" fill="none" xmlns="http://www.w3.org/2000/svg">
<rect x="1.41406" y="19.7988" width="2" height="26" transform="rotate(-135 1.41406 19.7988)" fill="white"/>
<rect x="19.7988" y="18.3848" width="2" height="26" transform="rotate(135 19.7988 18.3848)" fill="white"/>
</svg>
